{
   "name": "json_object",
   "abstract": "A function to turn an SQL into a JSON object",
   "description": "This small extension for PostgreSQL 9.2 and up provides a function that takes a one- or two-dimensional SQL array of text and turns it into a JSON object.",
   "version": "0.0.1",
   "maintainer": [
      "Andrew Dunstan <andrew@dunslane.net>"
   ],
   "license": "postgresql",
   "provides": {
      "json_object": {
         "abstract": "A function to turn an SQL into a JSON object",
         "file": "sql/json_object.sql",
         "docfile": "doc/json_object.md",
         "version": "0.0.1"
      }
   },
   "prereqs": {
      "runtime": {
         "requires": {
            "PostgreSQL": "9.2.0"
         }
      }
   },
   "resources": {
      "repository": {
        "url":  "https://bitbucket.org/qooleot/json_object.git",
        "web":  "https://bitbucket.org/qooleot/json_object",
        "type": "git"
      },
   	  "bugtracker": {
        "web": "https://bitbucket.org/qooleot/json_object/issues"
      }		    
   },
   "generated_by": "David E. Wheeler",
   "meta-spec": {
      "version": "1.0.0",
      "url": "http://pgxn.org/meta/spec.txt"
   },
   "tags": [
      "json",
      "object",
      "array",
      "sql array"
   ]
}
